<?xml version="1.0" encoding="utf-8"?>
<!-- Generator: Adobe Illustrator 18.0.0, SVG Export Plug-In . SVG Version: 6.00 Build 0)  -->
<!DOCTYPE svg PUBLIC "-//W3C//DTD SVG 1.1//EN" "http://www.w3.org/Graphics/SVG/1.1/DTD/svg11.dtd">
<svg version="1.1" id="Layer_1" xmlns="http://www.w3.org/2000/svg" xmlns:xlink="http://www.w3.org/1999/xlink" x="0px" y="0px"
	 viewBox="0 0 80.4 56.6" enable-background="new 0 0 80.4 56.6" xml:space="preserve">
<g>
	<rect x="0" y="0" fill="#E55023" width="80.4" height="1.5"/>
	<rect x="0" y="55.2" fill="#FFFFFF" width="80.4" height="1.5"/>
	<g>
		<defs>
			<rect id="SVGID_1_" x="0" y="0" width="80.4" height="56.6"/>
		</defs>
		<clipPath id="SVGID_2_">
			<use xlink:href="#SVGID_1_"  overflow="visible"/>
		</clipPath>
		<path clip-path="url(#SVGID_2_)" fill="#E65123" d="M40.2,31.4c-0.3,2.3-2.3,4-4.7,4c-2.4,0-4.3-1.7-4.7-4h-0.1v20.6h9.5
			L40.2,31.4L40.2,31.4z"/>
		<path clip-path="url(#SVGID_2_)" fill="#FFFFFF" d="M56,41.5c0-0.2,0.1-0.6,0.9-1.5l7.2-8.5h-8l-5.6,7.8c-0.4,0.6-1,1.5-1,2.3
			c0,0.9,0.7,1.9,1.2,2.6l6.3,8h8.1l-8.1-8.7C56.6,42.9,56,42.2,56,41.5 M75.2,36.6h5.2v-5.1h-8.4c-2.4,0-5.4,0.3-7.3,2.7
			c-1.5,1.9-1.8,4.4-1.8,7.9c0,3.9,0.7,6,1.9,7.5c1.7,2.1,3.9,2.5,7.1,2.5h8.5v-5.1h-5.1c-2.2,0-4.2,0-5.1-1.6
			c-0.2-0.4-0.5-1.1-0.5-3.4c0-1,0.1-2.7,0.7-3.7C71.3,36.5,73,36.6,75.2,36.6 M23.8,31.2c-1.8,0-4.3,0.2-5.4,3.4l-3.4,10
			c-0.1,0.2-0.4,0.9-0.6,0.9c-0.2,0-0.6-0.7-0.6-0.9l-3.4-10c-1.1-3.2-3.6-3.4-5.3-3.4c-1.1,0-5.1,0-5.1,3.6v17.2h6.8L6.6,39.5
			c0-0.2,0-0.7,0.2-0.7c0.2,0,0.3,0.4,0.4,0.7l3.2,10c0.5,1.5,1.1,2.8,4,2.8c2.9,0,3.5-1.3,4-2.8l3.2-10c0.2-0.6,0.3-0.7,0.4-0.7
			c0.1,0,0.3,0.1,0.3,0.7l-0.2,12.5h6.8V34.8C28.9,33.6,28.5,31.2,23.8,31.2 M42.2,52.1h6.7V31.4h-6.7V52.1z"/>
		<path clip-path="url(#SVGID_2_)" fill="#FFFFFF" d="M76.6,7.1h0.3c0.4,0,0.7-0.1,0.7-0.4c0-0.3-0.2-0.4-0.6-0.4
			c-0.2,0-0.3,0-0.4,0V7.1z M76.6,8.7H76V5.9c0.3,0,0.6-0.1,1.1-0.1c0.5,0,0.8,0.1,1,0.2c0.2,0.1,0.3,0.3,0.3,0.6
			c0,0.3-0.3,0.6-0.6,0.7v0C78,7.4,78.1,7.7,78.2,8c0.1,0.4,0.2,0.6,0.2,0.7h-0.7c-0.1-0.1-0.1-0.3-0.2-0.7
			c-0.1-0.3-0.2-0.4-0.6-0.4h-0.3V8.7z M74.9,7.3c0,1.3,1,2.3,2.2,2.3c1.2,0,2.2-1,2.2-2.2C79.3,6,78.3,5,77,5
			C75.8,5,74.9,6,74.9,7.3 M80,7.3c0,1.6-1.3,2.8-2.9,2.8c-1.6,0-2.9-1.3-2.9-2.8c0-1.6,1.3-2.8,3-2.8C78.7,4.4,80,5.7,80,7.3"/>
		<path clip-path="url(#SVGID_2_)" fill="#E65123" d="M17.8,24.3c-0.5,0.5-1.5,0.5-2,0.5h-5.2c-1.2,0-1.9,0.1-1.9-1.8v-2.4h7
			c0.5,0,1.4,0,1.9,0.5c0.6,0.4,0.6,0.9,0.6,1.5C18.3,23.1,18.3,23.8,17.8,24.3 M21.3,14.8H8.8v-1.9c0-1,0-1.6,1.7-1.6h15.2V4.6H4.3
			C3.3,4.6,0,4.8,0,8.9v18.8c0,2.2,1.6,3.8,3.8,3.8h17.5c2.7,0,4.1-1.6,4.4-2.1c1.3-1.7,1.5-4.2,1.5-6.5c0-1.8-0.1-4.7-1.5-6.3
			C24.9,15.6,23.4,14.8,21.3,14.8"/>
	</g>
	<polygon fill="#E65123" points="44.9,4.6 40.2,13.7 35.3,4.6 26.1,4.6 35.9,21.8 30.8,31.4 40.3,31.4 54.1,4.6 	"/>
	<g>
		<defs>
			<rect id="SVGID_3_" x="0" y="0" width="80.4" height="56.6"/>
		</defs>
		<clipPath id="SVGID_4_">
			<use xlink:href="#SVGID_3_"  overflow="visible"/>
		</clipPath>
		<path clip-path="url(#SVGID_4_)" fill="#E65123" d="M57.1,24.8l5-11.7c0.2-0.6,0.7-0.6,1,0l5,11.7H57.1z M77.3,24.8L68.2,7.1
			c-0.8-1.7-2.4-2.8-5.6-2.8v0c0,0,0,0,0,0c0,0,0,0,0,0v0c-3.2,0.1-4.6,1.1-5.5,2.8l-9.1,17.6h-3v6.7h17.5h0.2h17.7v-6.7H77.3z"/>
	</g>
</g>
</svg>
