<?xml version="1.0" encoding="utf-8"?>
<!-- Generator: Adobe Illustrator 18.0.0, SVG Export Plug-In . SVG Version: 6.00 Build 0)  -->
<!DOCTYPE svg PUBLIC "-//W3C//DTD SVG 1.1//EN" "http://www.w3.org/Graphics/SVG/1.1/DTD/svg11.dtd">
<svg version="1.1" id="Layer_1" xmlns="http://www.w3.org/2000/svg" xmlns:xlink="http://www.w3.org/1999/xlink" x="0px" y="0px"
	 viewBox="0 0 50 50" enable-background="new 0 0 50 50" xml:space="preserve">
<g>
	<g>
		<path fill="#3FAE49" d="M45.6,5.9H39V2.2C39,1,38,0,36.8,0H4.4C3.2,0,2.2,1,2.2,2.2V14c0,1.2,1,2.2,2.2,2.2h32.4
			c1.2,0,2.2-1,2.2-2.2v-3.7h4.4v9.1l-23.1,2.7c-1.1,0.1-1.9,1.1-1.9,2.2v6.6h-2.2c-1.2,0-2.2,1-2.2,2.2v14.7c0,1.2,1,2.2,2.2,2.2
			H25c1.2,0,2.2-1,2.2-2.2V33.1c0-1.2-1-2.2-2.2-2.2h-2.2v-4.7l23.1-2.7c1.1-0.1,1.9-1.1,1.9-2.2V8.1C47.8,6.9,46.8,5.9,45.6,5.9z"
			/>
	</g>
</g>
</svg>
